{
  "project_info": {
    "project_number": "109050126804",
    "firebase_url": "https://dunamisnew-97ae5.firebaseio.com",
    "project_id": "dunamisnew-97ae5",
    "storage_bucket": "dunamisnew-97ae5.appspot.com"
  },
  "client": [
    {
      "client_info": {
        "mobilesdk_app_id": "1:109050126804:android:f0798814352c4161c87641",
        "android_client_info": {
          "package_name": "com.dunamis1.dunamis1"
        }
      },
      "oauth_client": [
        {
          "client_id": "109050126804-pliql4uof04bqb5tgm56t875c536su8p.apps.googleusercontent.com",
          "client_type": 3
        }
      ],
      "api_key": [
        {
          "current_key": "AIzaSyBXxJZaBsOBXE8ceopxQxz8L08n5j1Jl7I"
        }
      ],
      "services": {
        "appinvite_service": {
          "other_platform_oauth_client": [
            {
              "client_id": "109050126804-pliql4uof04bqb5tgm56t875c536su8p.apps.googleusercontent.com",
              "client_type": 3
            }
          ]
        }
      }
    }
  ],
  "configuration_version": "1"
}