{
  "project_info": {
    "project_number": "50117616969",
    "firebase_url": "https://dunamis-e93af.firebaseio.com",
    "project_id": "dunamis-e93af",
    "storage_bucket": "dunamis-e93af.appspot.com"
  },
  "client": [
    {
      "client_info": {
        "mobilesdk_app_id": "1:50117616969:android:533571bcf3b2ef13bfe698",
        "android_client_info": {
          "package_name": "com.dunamis.dunamis"
        }
      },
      "oauth_client": [
        {
          "client_id": "50117616969-iidf7rgkq6ja6bv1c71obmvcsk83jp7m.apps.googleusercontent.com",
          "client_type": 3
        }
      ],
      "api_key": [
        {
          "current_key": "AIzaSyDZm2WUsnT1cD58Vwtfyop2mzF6JAzBZqU"
        }
      ],
      "services": {
        "appinvite_service": {
          "other_platform_oauth_client": [
            {
              "client_id": "50117616969-iidf7rgkq6ja6bv1c71obmvcsk83jp7m.apps.googleusercontent.com",
              "client_type": 3
            }
          ]
        }
      }
    }
  ],
  "configuration_version": "1"
}